{
    "jet_collection": "tempEmtopoJets",
    "calibration": {},
    "selection": {
        "minimum_jet_pt": 20000,
        "maximum_jet_absolute_eta": 2.5
    },
    "vertex_collection": "HLT_IDVertex_FS",
    "dl2_configs": [],
    "variables": {
        "jet" : {
            "ints": [
                "HadronConeExclTruthLabelID",
                "HadronConeExclExtendedTruthLabelID",
                "jetPtRank",
                "n_super_tracks"
            ],
            "floats": [
                "HadronConeExclTruthLabelPt",
                "pt"
            ],
            "halves": [
                "eta",
                "fastDips_pb",
                "fastDips_pc",
                "fastDips_pu",
                "fastGN120230327_pb",
                "fastGN120230327_pc",
                "fastGN120230327_pu"
            ]
        },
        "event": {
            "compressed": [
                "mcEventWeight",
                "eventNumber",
                "averageInteractionsPerCrossing",
                "actualInteractionsPerCrossing",
                "nPrimaryVertices",
                "primaryVertexBeamspotZ",
                "primaryVertexDetectorZUncertainty"
            ]
        },
        "default_mapping": {
            "file": "fragments/default-mapping.json"
        }
    },
    "tracks": [
        {
            "file": "fragments/tracks-relative-to-beamspot.json",
            "input_name": "TracksForMinimalJetTag",
            "output_name": "super_tracks"
        }
    ],
    "truths": [
        {
            "file": "fragments/overlap-leptons.json"
        }
    ],
    "decorate": {
        "jet_aug": false,
        "btag_jes": false,
        "soft_muon": false,
        "track_sv_info": false
    },
    "btagging_link": ""
}

